{
    "openapi": "3.0.0",
    "info": {
        "title": "SSO Management API",
        "version": "1.0"
    },
    "components": {
        "parameters": {
            "objectIdParam": {
                "name": "/objectId*",
                "in": "path",
                "required": true,
                "description": "",
                "schema": {
                    "type": "array",
                    "items": {
                        "type": "string"
                    }
                }
            }
        }
    },
    "paths": {
        "/application/{/objectId*}": {
            "get": {
                "parameters": [
                    {
                        "$ref": "#/components/parameters/objectIdParam"
                    }
                ],
                "tags": [
                    "application"
                ],
                "responses": {
                    "200": {
                        "description": "OK"
                    }
                }
            }
        },
        "/application/{objectId}/$link/method": {
            "get": {
                "tags": [
                    "application"
                ],
                "responses": {
                    "200": {
                        "description": "OK"
                    }
                }
            }
        },
        "/application/{objectId}/$link/method/{linkId}": {
            "get": {
                "tags": [
                    "application"
                ],
                "responses": {
                    "200": {
                        "description": "OK"
                    }
                }
            }
        },
        "/application/{objectId}/$link/outboundMappingPolicy": {
            "get": {
                "tags": [
                    "application"
                ],
                "responses": {
                    "200": {
                        "description": "OK"
                    }
                }
            }
        },
        "/application/{objectId}/$link/outboundMappingPolicy/{linkId}": {
            "get": {
                "tags": [
                    "application"
                ],
                "responses": {
                    "200": {
                        "description": "OK"
                    }
                }
            }
        },
        "/application/{objectId}/$link/policy": {
            "get": {
                "tags": [
                    "application"
                ],
                "responses": {
                    "200": {
                        "description": "OK"
                    }
                }
            }
        },
        "/application/{objectId}/$link/policy/{linkId}": {
            "get": {
                "tags": [
                    "application"
                ],
                "responses": {
                    "200": {
                        "description": "OK"
                    }
                }
            }
        },
        "/application/{objectId}/$link/refreshTokenPolicy": {
            "get": {
                "tags": [
                    "application"
                ],
                "responses": {
                    "200": {
                        "description": "OK"
                    }
                }
            }
        },
        "/application/{objectId}/$link/refreshTokenPolicy/{linkId}": {
            "get": {
                "tags": [
                    "application"
                ],
                "responses": {
                    "200": {
                        "description": "OK"
                    }
                }
            }
        },
        "/application/{objectId}/$link/site": {
            "get": {
                "tags": [
                    "application"
                ],
                "responses": {
                    "200": {
                        "description": "OK"
                    }
                }
            }
        },
        "/application/{objectId}/$link/site/{linkId}": {
            "get": {
                "tags": [
                    "application"
                ],
                "responses": {
                    "200": {
                        "description": "OK"
                    }
                }
            }
        },
        "/application/{objectId}/$link/allowedTo": {
            "get": {
                "tags": [
                    "application"
                ],
                "responses": {
                    "200": {
                        "description": "OK"
                    }
                }
            }
        },
        "/application/{objectId}/$link/allowedTo/group": {
            "get": {
                "tags": [
                    "application"
                ],
                "responses": {
                    "200": {
                        "description": "OK"
                    }
                }
            }
        },
        "/application/{objectId}/$link/allowedTo/group/{linkId}": {
            "get": {
                "tags": [
                    "application"
                ],
                "responses": {
                    "200": {
                        "description": "OK"
                    }
                }
            }
        },
        "/directory/{objectId}": {
            "get": {
                "tags": [
                    "directory"
                ],
                "responses": {
                    "200": {
                        "description": "OK"
                    }
                }
            }
        },
        "/directory/{objectId}/$link/inboundServiceMapping": {
            "get": {
                "tags": [
                    "directory"
                ],
                "responses": {
                    "200": {
                        "description": "OK"
                    }
                }
            }
        },
        "/directory/{objectId}/$link/inboundServiceMapping/{linkId}": {
            "get": {
                "tags": [
                    "directory"
                ],
                "responses": {
                    "200": {
                        "description": "OK"
                    }
                }
            }
        },
        "/directory/{objectId}/$link/method": {
            "get": {
                "tags": [
                    "directory"
                ],
                "responses": {
                    "200": {
                        "description": "OK"
                    }
                }
            }
        },
        "/directory/{objectId}/$link/method/{linkId}": {
            "get": {
                "tags": [
                    "directory"
                ],
                "responses": {
                    "200": {
                        "description": "OK"
                    }
                }
            }
        },
        "/directory/{objectId}/$link/services": {
            "get": {
                "tags": [
                    "directory"
                ],
                "responses": {
                    "200": {
                        "description": "OK"
                    }
                }
            }
        },
        "/group/{objectId}": {
            "get": {
                "tags": [
                    "group"
                ],
                "responses": {
                    "200": {
                        "description": "OK"
                    }
                }
            }
        },
        "/group/{objectId}/$link/method": {
            "get": {
                "tags": [
                    "group"
                ],
                "responses": {
                    "200": {
                        "description": "OK"
                    }
                }
            }
        },
        "/group/{objectId}/$link/method/{linkId}": {
            "get": {
                "tags": [
                    "group"
                ],
                "responses": {
                    "200": {
                        "description": "OK"
                    }
                }
            }
        },
        "/group/{objectId}/$link/policy": {
            "get": {
                "tags": [
                    "group"
                ],
                "responses": {
                    "200": {
                        "description": "OK"
                    }
                }
            }
        },
        "/group/{objectId}/$link/policy/{linkId}": {
            "get": {
                "tags": [
                    "group"
                ],
                "responses": {
                    "200": {
                        "description": "OK"
                    }
                }
            }
        },
        "/group/{objectId}/$link/policyItem": {
            "get": {
                "tags": [
                    "group"
                ],
                "responses": {
                    "200": {
                        "description": "OK"
                    }
                }
            }
        },
        "/group/{objectId}/$link/policyItem/{linkId}": {
            "get": {
                "tags": [
                    "group"
                ],
                "responses": {
                    "200": {
                        "description": "OK"
                    }
                }
            }
        },
        "/group/{objectId}/$link/site": {
            "get": {
                "tags": [
                    "group"
                ],
                "responses": {
                    "200": {
                        "description": "OK"
                    }
                }
            }
        },
        "/group/{objectId}/$link/site/{linkId}": {
            "get": {
                "tags": [
                    "group"
                ],
                "responses": {
                    "200": {
                        "description": "OK"
                    }
                }
            }
        },
        "/group/{objectId}/$link/accessTo": {
            "get": {
                "tags": [
                    "group"
                ],
                "responses": {
                    "200": {
                        "description": "OK"
                    }
                }
            }
        },
        "/group/{objectId}/$link/accessTo/application": {
            "get": {
                "tags": [
                    "group"
                ],
                "responses": {
                    "200": {
                        "description": "OK"
                    }
                }
            }
        },
        "/group/{objectId}/$link/accessTo/application/{linkId}": {
            "get": {
                "tags": [
                    "group"
                ],
                "responses": {
                    "200": {
                        "description": "OK"
                    }
                }
            }
        },
        "/group/{objectId}/$link/manages": {
            "get": {
                "tags": [
                    "group"
                ],
                "responses": {
                    "200": {
                        "description": "OK"
                    }
                }
            }
        },
        "/group/{objectId}/$link/manages/site": {
            "get": {
                "tags": [
                    "group"
                ],
                "responses": {
                    "200": {
                        "description": "OK"
                    }
                }
            }
        },
        "/group/{objectId}/$link/manages/site/{linkId}": {
            "get": {
                "tags": [
                    "group"
                ],
                "responses": {
                    "200": {
                        "description": "OK"
                    }
                }
            }
        },
        "/group/{objectId}/$link/member": {
            "get": {
                "tags": [
                    "group"
                ],
                "responses": {
                    "200": {
                        "description": "OK"
                    }
                }
            }
        },
        "/group/{objectId}/$link/member/group": {
            "get": {
                "tags": [
                    "group"
                ],
                "responses": {
                    "200": {
                        "description": "OK"
                    }
                }
            }
        },
        "/group/{objectId}/$link/member/group/{linkId}": {
            "get": {
                "tags": [
                    "group"
                ],
                "responses": {
                    "200": {
                        "description": "OK"
                    }
                }
            }
        },
        "/group/{objectId}/$link/member/user": {
            "get": {
                "tags": [
                    "group"
                ],
                "responses": {
                    "200": {
                        "description": "OK"
                    }
                }
            }
        },
        "/group/{objectId}/$link/member/user/{linkId}": {
            "get": {
                "tags": [
                    "group"
                ],
                "responses": {
                    "200": {
                        "description": "OK"
                    }
                }
            }
        },
        "/group/{objectId}/$link/memberOf": {
            "get": {
                "tags": [
                    "group"
                ],
                "responses": {
                    "200": {
                        "description": "OK"
                    }
                }
            }
        },
        "/group/{objectId}/$link/memberOf/group": {
            "get": {
                "tags": [
                    "group"
                ],
                "responses": {
                    "200": {
                        "description": "OK"
                    }
                }
            }
        },
        "/group/{objectId}/$link/memberOf/group/{linkId}": {
            "get": {
                "tags": [
                    "group"
                ],
                "responses": {
                    "200": {
                        "description": "OK"
                    }
                }
            }
        },
        "/inboundDirectoryMapping/{objectId}": {
            "get": {
                "tags": [
                    "inboundDirectoryMapping"
                ],
                "responses": {
                    "200": {
                        "description": "OK"
                    }
                }
            }
        },
        "/inboundDirectoryMapping/{objectId}/$link/inboundMappingPolicy": {
            "get": {
                "tags": [
                    "inboundDirectoryMapping"
                ],
                "responses": {
                    "200": {
                        "description": "OK"
                    }
                }
            }
        },
        "/inboundDirectoryMapping/{objectId}/$link/inboundMappingPolicy/{linkId}": {
            "get": {
                "tags": [
                    "inboundDirectoryMapping"
                ],
                "responses": {
                    "200": {
                        "description": "OK"
                    }
                }
            }
        },
        "/inboundMappingPolicy/{objectId}": {
            "get": {
                "tags": [
                    "inboundMappingPolicy"
                ],
                "responses": {
                    "200": {
                        "description": "OK"
                    }
                }
            }
        },
        "/inboundMappingPolicy/{objectId}/$link/inboundDirectoryMapping": {
            "get": {
                "tags": [
                    "inboundMappingPolicy"
                ],
                "responses": {
                    "200": {
                        "description": "OK"
                    }
                }
            }
        },
        "/inboundMappingPolicy/{objectId}/$link/inboundDirectoryMapping/{linkId}": {
            "get": {
                "tags": [
                    "inboundMappingPolicy"
                ],
                "responses": {
                    "200": {
                        "description": "OK"
                    }
                }
            }
        },
        "/inboundMappingPolicy/{objectId}/$link/inboundServiceMapping": {
            "get": {
                "tags": [
                    "inboundMappingPolicy"
                ],
                "responses": {
                    "200": {
                        "description": "OK"
                    }
                }
            }
        },
        "/inboundMappingPolicy/{objectId}/$link/inboundServiceMapping/{linkId}": {
            "get": {
                "tags": [
                    "inboundMappingPolicy"
                ],
                "responses": {
                    "200": {
                        "description": "OK"
                    }
                }
            }
        },
        "/inboundMappingPolicy/{objectId}/$link/method": {
            "get": {
                "tags": [
                    "inboundMappingPolicy"
                ],
                "responses": {
                    "200": {
                        "description": "OK"
                    }
                }
            }
        },
        "/inboundMappingPolicy/{objectId}/$link/method/{linkId}": {
            "get": {
                "tags": [
                    "inboundMappingPolicy"
                ],
                "responses": {
                    "200": {
                        "description": "OK"
                    }
                }
            }
        },
        "/inboundMappingPolicy/{objectId}/$link/server": {
            "get": {
                "tags": [
                    "inboundMappingPolicy"
                ],
                "responses": {
                    "200": {
                        "description": "OK"
                    }
                }
            }
        },
        "/inboundMappingPolicy/{objectId}/$link/one": {
            "get": {
                "tags": [
                    "inboundMappingPolicy"
                ],
                "responses": {
                    "200": {
                        "description": "OK"
                    }
                }
            }
        },
        "/inboundMappingPolicy/{objectId}/$link/one/inboundDirectoryMapping": {
            "get": {
                "tags": [
                    "inboundMappingPolicy"
                ],
                "responses": {
                    "200": {
                        "description": "OK"
                    }
                }
            }
        },
        "/inboundMappingPolicy/{objectId}/$link/one/inboundDirectoryMapping/{linkId}": {
            "get": {
                "tags": [
                    "inboundMappingPolicy"
                ],
                "responses": {
                    "200": {
                        "description": "OK"
                    }
                }
            }
        },
        "/inboundMappingPolicy/{objectId}/$link/one/inboundServiceMapping": {
            "get": {
                "tags": [
                    "inboundMappingPolicy"
                ],
                "responses": {
                    "200": {
                        "description": "OK"
                    }
                }
            }
        },
        "/inboundMappingPolicy/{objectId}/$link/one/inboundServiceMapping/{linkId}": {
            "get": {
                "tags": [
                    "inboundMappingPolicy"
                ],
                "responses": {
                    "200": {
                        "description": "OK"
                    }
                }
            }
        },
        "/inboundPolicy/{objectId}": {
            "get": {
                "tags": [
                    "inboundPolicy"
                ],
                "responses": {
                    "200": {
                        "description": "OK"
                    }
                }
            }
        },
        "/inboundPolicy/{objectId}/$link/inboundPolicyItem": {
            "get": {
                "tags": [
                    "inboundPolicy"
                ],
                "responses": {
                    "200": {
                        "description": "OK"
                    }
                }
            }
        },
        "/inboundPolicy/{objectId}/$link/inboundPolicyItem/{linkId}": {
            "get": {
                "tags": [
                    "inboundPolicy"
                ],
                "responses": {
                    "200": {
                        "description": "OK"
                    }
                }
            }
        },
        "/inboundPolicy/{objectId}/$link/method": {
            "get": {
                "tags": [
                    "inboundPolicy"
                ],
                "responses": {
                    "200": {
                        "description": "OK"
                    }
                }
            }
        },
        "/inboundPolicy/{objectId}/$link/method/{linkId}": {
            "get": {
                "tags": [
                    "inboundPolicy"
                ],
                "responses": {
                    "200": {
                        "description": "OK"
                    }
                }
            }
        },
        "/inboundPolicy/{objectId}/$link/server": {
            "get": {
                "tags": [
                    "inboundPolicy"
                ],
                "responses": {
                    "200": {
                        "description": "OK"
                    }
                }
            }
        },
        "/inboundPolicyItem/{objectId}": {
            "get": {
                "tags": [
                    "inboundPolicyItem"
                ],
                "responses": {
                    "200": {
                        "description": "OK"
                    }
                }
            }
        },
        "/inboundPolicyItem/{objectId}/$link/inboundPolicy": {
            "get": {
                "tags": [
                    "inboundPolicyItem"
                ],
                "responses": {
                    "200": {
                        "description": "OK"
                    }
                }
            }
        },
        "/inboundPolicyItem/{objectId}/$link/inboundPolicy/{linkId}": {
            "get": {
                "tags": [
                    "inboundPolicyItem"
                ],
                "responses": {
                    "200": {
                        "description": "OK"
                    }
                }
            }
        },
        "/inboundServiceMapping/{objectId}": {
            "get": {
                "tags": [
                    "inboundServiceMapping"
                ],
                "responses": {
                    "200": {
                        "description": "OK"
                    }
                }
            }
        },
        "/inboundServiceMapping/{objectId}/$link/directory": {
            "get": {
                "tags": [
                    "inboundServiceMapping"
                ],
                "responses": {
                    "200": {
                        "description": "OK"
                    }
                }
            }
        },
        "/inboundServiceMapping/{objectId}/$link/directory/{linkId}": {
            "get": {
                "tags": [
                    "inboundServiceMapping"
                ],
                "responses": {
                    "200": {
                        "description": "OK"
                    }
                }
            }
        },
        "/inboundServiceMapping/{objectId}/$link/inboundMappingPolicy": {
            "get": {
                "tags": [
                    "inboundServiceMapping"
                ],
                "responses": {
                    "200": {
                        "description": "OK"
                    }
                }
            }
        },
        "/inboundServiceMapping/{objectId}/$link/inboundMappingPolicy/{linkId}": {
            "get": {
                "tags": [
                    "inboundServiceMapping"
                ],
                "responses": {
                    "200": {
                        "description": "OK"
                    }
                }
            }
        },
        "/inboundServiceMapping/{objectId}/$link/service": {
            "get": {
                "tags": [
                    "inboundServiceMapping"
                ],
                "responses": {
                    "200": {
                        "description": "OK"
                    }
                }
            }
        },
        "/inboundServiceMapping/{objectId}/$link/service/{linkId}": {
            "get": {
                "tags": [
                    "inboundServiceMapping"
                ],
                "responses": {
                    "200": {
                        "description": "OK"
                    }
                }
            }
        },
        "/method/{objectId}": {
            "get": {
                "tags": [
                    "method"
                ],
                "responses": {
                    "200": {
                        "description": "OK"
                    }
                }
            }
        },
        "/method/{objectId}/$link/application": {
            "get": {
                "tags": [
                    "method"
                ],
                "responses": {
                    "200": {
                        "description": "OK"
                    }
                }
            }
        },
        "/method/{objectId}/$link/application/{linkId}": {
            "get": {
                "tags": [
                    "method"
                ],
                "responses": {
                    "200": {
                        "description": "OK"
                    }
                }
            }
        },
        "/method/{objectId}/$link/directory": {
            "get": {
                "tags": [
                    "method"
                ],
                "responses": {
                    "200": {
                        "description": "OK"
                    }
                }
            }
        },
        "/method/{objectId}/$link/directory/{linkId}": {
            "get": {
                "tags": [
                    "method"
                ],
                "responses": {
                    "200": {
                        "description": "OK"
                    }
                }
            }
        },
        "/method/{objectId}/$link/group": {
            "get": {
                "tags": [
                    "method"
                ],
                "responses": {
                    "200": {
                        "description": "OK"
                    }
                }
            }
        },
        "/method/{objectId}/$link/group/{linkId}": {
            "get": {
                "tags": [
                    "method"
                ],
                "responses": {
                    "200": {
                        "description": "OK"
                    }
                }
            }
        },
        "/method/{objectId}/$link/inboundMappingPolicy": {
            "get": {
                "tags": [
                    "method"
                ],
                "responses": {
                    "200": {
                        "description": "OK"
                    }
                }
            }
        },
        "/method/{objectId}/$link/inboundMappingPolicy/{linkId}": {
            "get": {
                "tags": [
                    "method"
                ],
                "responses": {
                    "200": {
                        "description": "OK"
                    }
                }
            }
        },
        "/method/{objectId}/$link/inboundPolicy": {
            "get": {
                "tags": [
                    "method"
                ],
                "responses": {
                    "200": {
                        "description": "OK"
                    }
                }
            }
        },
        "/method/{objectId}/$link/inboundPolicy/{linkId}": {
            "get": {
                "tags": [
                    "method"
                ],
                "responses": {
                    "200": {
                        "description": "OK"
                    }
                }
            }
        },
        "/method/{objectId}/$link/server": {
            "get": {
                "tags": [
                    "method"
                ],
                "responses": {
                    "200": {
                        "description": "OK"
                    }
                }
            }
        },
        "/method/{objectId}/$link/site": {
            "get": {
                "tags": [
                    "method"
                ],
                "responses": {
                    "200": {
                        "description": "OK"
                    }
                }
            }
        },
        "/method/{objectId}/$link/site/{linkId}": {
            "get": {
                "tags": [
                    "method"
                ],
                "responses": {
                    "200": {
                        "description": "OK"
                    }
                }
            }
        },
        "/method/{objectId}/$link/user": {
            "get": {
                "tags": [
                    "method"
                ],
                "responses": {
                    "200": {
                        "description": "OK"
                    }
                }
            }
        },
        "/method/{objectId}/$link/user/{linkId}": {
            "get": {
                "tags": [
                    "method"
                ],
                "responses": {
                    "200": {
                        "description": "OK"
                    }
                }
            }
        },
        "/outboundMappingPolicy/{objectId}": {
            "get": {
                "tags": [
                    "outboundMappingPolicy"
                ],
                "responses": {
                    "200": {
                        "description": "OK"
                    }
                }
            }
        },
        "/outboundMappingPolicy/{objectId}/$link/application": {
            "get": {
                "tags": [
                    "outboundMappingPolicy"
                ],
                "responses": {
                    "200": {
                        "description": "OK"
                    }
                }
            }
        },
        "/outboundMappingPolicy/{objectId}/$link/application/{linkId}": {
            "get": {
                "tags": [
                    "outboundMappingPolicy"
                ],
                "responses": {
                    "200": {
                        "description": "OK"
                    }
                }
            }
        },
        "/outboundMappingPolicy/{objectId}/$link/outboundUserMapping": {
            "get": {
                "tags": [
                    "outboundMappingPolicy"
                ],
                "responses": {
                    "200": {
                        "description": "OK"
                    }
                }
            }
        },
        "/outboundMappingPolicy/{objectId}/$link/outboundUserMapping/{linkId}": {
            "get": {
                "tags": [
                    "outboundMappingPolicy"
                ],
                "responses": {
                    "200": {
                        "description": "OK"
                    }
                }
            }
        },
        "/outboundMappingPolicy/{objectId}/$link/site": {
            "get": {
                "tags": [
                    "outboundMappingPolicy"
                ],
                "responses": {
                    "200": {
                        "description": "OK"
                    }
                }
            }
        },
        "/outboundMappingPolicy/{objectId}/$link/site/{linkId}": {
            "get": {
                "tags": [
                    "outboundMappingPolicy"
                ],
                "responses": {
                    "200": {
                        "description": "OK"
                    }
                }
            }
        },
        "/outboundMappingPolicy/{objectId}/$link/user": {
            "get": {
                "tags": [
                    "outboundMappingPolicy"
                ],
                "responses": {
                    "200": {
                        "description": "OK"
                    }
                }
            }
        },
        "/outboundMappingPolicy/{objectId}/$link/user/{linkId}": {
            "get": {
                "tags": [
                    "outboundMappingPolicy"
                ],
                "responses": {
                    "200": {
                        "description": "OK"
                    }
                }
            }
        },
        "/outboundUserMapping/{objectId}": {
            "get": {
                "tags": [
                    "outboundUserMapping"
                ],
                "responses": {
                    "200": {
                        "description": "OK"
                    }
                }
            }
        },
        "/outboundUserMapping/{objectId}/$link/outboundMappingPolicy": {
            "get": {
                "tags": [
                    "outboundUserMapping"
                ],
                "responses": {
                    "200": {
                        "description": "OK"
                    }
                }
            }
        },
        "/outboundUserMapping/{objectId}/$link/outboundMappingPolicy/{linkId}": {
            "get": {
                "tags": [
                    "outboundUserMapping"
                ],
                "responses": {
                    "200": {
                        "description": "OK"
                    }
                }
            }
        },
        "/outboundUserMapping/{objectId}/$link/user": {
            "get": {
                "tags": [
                    "outboundUserMapping"
                ],
                "responses": {
                    "200": {
                        "description": "OK"
                    }
                }
            }
        },
        "/outboundUserMapping/{objectId}/$link/user/{linkId}": {
            "get": {
                "tags": [
                    "outboundUserMapping"
                ],
                "responses": {
                    "200": {
                        "description": "OK"
                    }
                }
            }
        },
        "/policy/{objectId}": {
            "get": {
                "tags": [
                    "policy"
                ],
                "responses": {
                    "200": {
                        "description": "OK"
                    }
                }
            }
        },
        "/policy/{objectId}/$link/application": {
            "get": {
                "tags": [
                    "policy"
                ],
                "responses": {
                    "200": {
                        "description": "OK"
                    }
                }
            }
        },
        "/policy/{objectId}/$link/application/{linkId}": {
            "get": {
                "tags": [
                    "policy"
                ],
                "responses": {
                    "200": {
                        "description": "OK"
                    }
                }
            }
        },
        "/policy/{objectId}/$link/group": {
            "get": {
                "tags": [
                    "policy"
                ],
                "responses": {
                    "200": {
                        "description": "OK"
                    }
                }
            }
        },
        "/policy/{objectId}/$link/group/{linkId}": {
            "get": {
                "tags": [
                    "policy"
                ],
                "responses": {
                    "200": {
                        "description": "OK"
                    }
                }
            }
        },
        "/policy/{objectId}/$link/policyItem": {
            "get": {
                "tags": [
                    "policy"
                ],
                "responses": {
                    "200": {
                        "description": "OK"
                    }
                }
            }
        },
        "/policy/{objectId}/$link/policyItem/{linkId}": {
            "get": {
                "tags": [
                    "policy"
                ],
                "responses": {
                    "200": {
                        "description": "OK"
                    }
                }
            }
        },
        "/policy/{objectId}/$link/site": {
            "get": {
                "tags": [
                    "policy"
                ],
                "responses": {
                    "200": {
                        "description": "OK"
                    }
                }
            }
        },
        "/policy/{objectId}/$link/site/{linkId}": {
            "get": {
                "tags": [
                    "policy"
                ],
                "responses": {
                    "200": {
                        "description": "OK"
                    }
                }
            }
        },
        "/policyItem/{objectId}": {
            "get": {
                "tags": [
                    "policyItem"
                ],
                "responses": {
                    "200": {
                        "description": "OK"
                    }
                }
            }
        },
        "/policyItem/{objectId}/$link/group": {
            "get": {
                "tags": [
                    "policyItem"
                ],
                "responses": {
                    "200": {
                        "description": "OK"
                    }
                }
            }
        },
        "/policyItem/{objectId}/$link/group/{linkId}": {
            "get": {
                "tags": [
                    "policyItem"
                ],
                "responses": {
                    "200": {
                        "description": "OK"
                    }
                }
            }
        },
        "/policyItem/{objectId}/$link/policy": {
            "get": {
                "tags": [
                    "policyItem"
                ],
                "responses": {
                    "200": {
                        "description": "OK"
                    }
                }
            }
        },
        "/policyItem/{objectId}/$link/policy/{linkId}": {
            "get": {
                "tags": [
                    "policyItem"
                ],
                "responses": {
                    "200": {
                        "description": "OK"
                    }
                }
            }
        },
        "/refreshTokenPolicy/{objectId}": {
            "get": {
                "tags": [
                    "refreshTokenPolicy"
                ],
                "responses": {
                    "200": {
                        "description": "OK"
                    }
                }
            }
        },
        "/refreshTokenPolicy/{objectId}/$link/application": {
            "get": {
                "tags": [
                    "refreshTokenPolicy"
                ],
                "responses": {
                    "200": {
                        "description": "OK"
                    }
                }
            }
        },
        "/refreshTokenPolicy/{objectId}/$link/application/{linkId}": {
            "get": {
                "tags": [
                    "refreshTokenPolicy"
                ],
                "responses": {
                    "200": {
                        "description": "OK"
                    }
                }
            }
        },
        "/refreshTokenPolicy/{objectId}/$link/site": {
            "get": {
                "tags": [
                    "refreshTokenPolicy"
                ],
                "responses": {
                    "200": {
                        "description": "OK"
                    }
                }
            }
        },
        "/refreshTokenPolicy/{objectId}/$link/site/{linkId}": {
            "get": {
                "tags": [
                    "refreshTokenPolicy"
                ],
                "responses": {
                    "200": {
                        "description": "OK"
                    }
                }
            }
        },
        "/server": {
            "get": {
                "tags": [
                    "server"
                ],
                "responses": {
                    "200": {
                        "description": "OK"
                    }
                }
            }
        },
        "/server/$link/inboundMappingPolicy": {
            "get": {
                "tags": [
                    "server"
                ],
                "responses": {
                    "200": {
                        "description": "OK"
                    }
                }
            }
        },
        "/server/$link/inboundMappingPolicy/{linkId}": {
            "get": {
                "tags": [
                    "server"
                ],
                "responses": {
                    "200": {
                        "description": "OK"
                    }
                }
            }
        },
        "/server/$link/inboundPolicy": {
            "get": {
                "tags": [
                    "server"
                ],
                "responses": {
                    "200": {
                        "description": "OK"
                    }
                }
            }
        },
        "/server/$link/inboundPolicy/{linkId}": {
            "get": {
                "tags": [
                    "server"
                ],
                "responses": {
                    "200": {
                        "description": "OK"
                    }
                }
            }
        },
        "/server/$link/method": {
            "get": {
                "tags": [
                    "server"
                ],
                "responses": {
                    "200": {
                        "description": "OK"
                    }
                }
            }
        },
        "/server/$link/method/{linkId}": {
            "get": {
                "tags": [
                    "server"
                ],
                "responses": {
                    "200": {
                        "description": "OK"
                    }
                }
            }
        },
        "/server/$link/one": {
            "get": {
                "tags": [
                    "server"
                ],
                "responses": {
                    "200": {
                        "description": "OK"
                    }
                }
            }
        },
        "/server/$link/one/inboundMappingPolicy": {
            "get": {
                "tags": [
                    "server"
                ],
                "responses": {
                    "200": {
                        "description": "OK"
                    }
                }
            }
        },
        "/server/$link/one/inboundMappingPolicy/{linkId}": {
            "get": {
                "tags": [
                    "server"
                ],
                "responses": {
                    "200": {
                        "description": "OK"
                    }
                }
            }
        },
        "/server/$link/one/inboundPolicy": {
            "get": {
                "tags": [
                    "server"
                ],
                "responses": {
                    "200": {
                        "description": "OK"
                    }
                }
            }
        },
        "/server/$link/one/inboundPolicy/{linkId}": {
            "get": {
                "tags": [
                    "server"
                ],
                "responses": {
                    "200": {
                        "description": "OK"
                    }
                }
            }
        },
        "/server/$link/one/method": {
            "get": {
                "tags": [
                    "server"
                ],
                "responses": {
                    "200": {
                        "description": "OK"
                    }
                }
            }
        },
        "/server/$link/one/method/{linkId}": {
            "get": {
                "tags": [
                    "server"
                ],
                "responses": {
                    "200": {
                        "description": "OK"
                    }
                }
            }
        },
        "/service/{objectId}": {
            "get": {
                "tags": [
                    "service"
                ],
                "responses": {
                    "200": {
                        "description": "OK"
                    }
                }
            }
        },
        "/service/{objectId}/$link/inboundServiceMapping": {
            "get": {
                "tags": [
                    "service"
                ],
                "responses": {
                    "200": {
                        "description": "OK"
                    }
                }
            }
        },
        "/service/{objectId}/$link/inboundServiceMapping/{linkId}": {
            "get": {
                "tags": [
                    "service"
                ],
                "responses": {
                    "200": {
                        "description": "OK"
                    }
                }
            }
        },
        "/service/{objectId}/$link/services": {
            "get": {
                "tags": [
                    "service"
                ],
                "responses": {
                    "200": {
                        "description": "OK"
                    }
                }
            }
        },
        "/service/{objectId}/$link/sessionStore": {
            "get": {
                "tags": [
                    "service"
                ],
                "responses": {
                    "200": {
                        "description": "OK"
                    }
                }
            }
        },
        "/service/{objectId}/$link/sessionStore/{linkId}": {
            "get": {
                "tags": [
                    "service"
                ],
                "responses": {
                    "200": {
                        "description": "OK"
                    }
                }
            }
        },
        "/services": {
            "get": {
                "tags": [
                    "services"
                ],
                "responses": {
                    "200": {
                        "description": "OK"
                    }
                }
            }
        },
        "/services/$link/directory": {
            "get": {
                "tags": [
                    "services"
                ],
                "responses": {
                    "200": {
                        "description": "OK"
                    }
                }
            }
        },
        "/services/$link/directory/{linkId}": {
            "get": {
                "tags": [
                    "services"
                ],
                "responses": {
                    "200": {
                        "description": "OK"
                    }
                }
            }
        },
        "/services/$link/service": {
            "get": {
                "tags": [
                    "services"
                ],
                "responses": {
                    "200": {
                        "description": "OK"
                    }
                }
            }
        },
        "/services/$link/service/{linkId}": {
            "get": {
                "tags": [
                    "services"
                ],
                "responses": {
                    "200": {
                        "description": "OK"
                    }
                }
            }
        },
        "/services/$link/sessionStore": {
            "get": {
                "tags": [
                    "services"
                ],
                "responses": {
                    "200": {
                        "description": "OK"
                    }
                }
            }
        },
        "/services/$link/sessionStore/{linkId}": {
            "get": {
                "tags": [
                    "services"
                ],
                "responses": {
                    "200": {
                        "description": "OK"
                    }
                }
            }
        },
        "/services/$link/one": {
            "get": {
                "tags": [
                    "services"
                ],
                "responses": {
                    "200": {
                        "description": "OK"
                    }
                }
            }
        },
        "/services/$link/one/directory": {
            "get": {
                "tags": [
                    "services"
                ],
                "responses": {
                    "200": {
                        "description": "OK"
                    }
                }
            }
        },
        "/services/$link/one/directory/{linkId}": {
            "get": {
                "tags": [
                    "services"
                ],
                "responses": {
                    "200": {
                        "description": "OK"
                    }
                }
            }
        },
        "/services/$link/one/service": {
            "get": {
                "tags": [
                    "services"
                ],
                "responses": {
                    "200": {
                        "description": "OK"
                    }
                }
            }
        },
        "/services/$link/one/service/{linkId}": {
            "get": {
                "tags": [
                    "services"
                ],
                "responses": {
                    "200": {
                        "description": "OK"
                    }
                }
            }
        },
        "/services/$link/one/sessionStore": {
            "get": {
                "tags": [
                    "services"
                ],
                "responses": {
                    "200": {
                        "description": "OK"
                    }
                }
            }
        },
        "/services/$link/one/sessionStore/{linkId}": {
            "get": {
                "tags": [
                    "services"
                ],
                "responses": {
                    "200": {
                        "description": "OK"
                    }
                }
            }
        },
        "/sessionStore/{objectId}": {
            "get": {
                "tags": [
                    "sessionStore"
                ],
                "responses": {
                    "200": {
                        "description": "OK"
                    }
                }
            }
        },
        "/sessionStore/{objectId}/$link/service": {
            "get": {
                "tags": [
                    "sessionStore"
                ],
                "responses": {
                    "200": {
                        "description": "OK"
                    }
                }
            }
        },
        "/sessionStore/{objectId}/$link/service/{linkId}": {
            "get": {
                "tags": [
                    "sessionStore"
                ],
                "responses": {
                    "200": {
                        "description": "OK"
                    }
                }
            }
        },
        "/sessionStore/{objectId}/$link/services": {
            "get": {
                "tags": [
                    "sessionStore"
                ],
                "responses": {
                    "200": {
                        "description": "OK"
                    }
                }
            }
        },
        "/site/{objectId}": {
            "get": {
                "tags": [
                    "site"
                ],
                "responses": {
                    "200": {
                        "description": "OK"
                    }
                }
            }
        },
        "/site/{objectId}/$link/method": {
            "get": {
                "tags": [
                    "site"
                ],
                "responses": {
                    "200": {
                        "description": "OK"
                    }
                }
            }
        },
        "/site/{objectId}/$link/method/{linkId}": {
            "get": {
                "tags": [
                    "site"
                ],
                "responses": {
                    "200": {
                        "description": "OK"
                    }
                }
            }
        },
        "/site/{objectId}/$link/site": {
            "get": {
                "tags": [
                    "site"
                ],
                "responses": {
                    "200": {
                        "description": "OK"
                    }
                }
            }
        },
        "/site/{objectId}/$link/site/{linkId}": {
            "get": {
                "tags": [
                    "site"
                ],
                "responses": {
                    "200": {
                        "description": "OK"
                    }
                }
            }
        },
        "/site/{objectId}/$link/managedBy": {
            "get": {
                "tags": [
                    "site"
                ],
                "responses": {
                    "200": {
                        "description": "OK"
                    }
                }
            }
        },
        "/site/{objectId}/$link/managedBy/group": {
            "get": {
                "tags": [
                    "site"
                ],
                "responses": {
                    "200": {
                        "description": "OK"
                    }
                }
            }
        },
        "/site/{objectId}/$link/managedBy/group/{linkId}": {
            "get": {
                "tags": [
                    "site"
                ],
                "responses": {
                    "200": {
                        "description": "OK"
                    }
                }
            }
        },
        "/site/{objectId}/$link/one": {
            "get": {
                "tags": [
                    "site"
                ],
                "responses": {
                    "200": {
                        "description": "OK"
                    }
                }
            }
        },
        "/site/{objectId}/$link/one/application": {
            "get": {
                "tags": [
                    "site"
                ],
                "responses": {
                    "200": {
                        "description": "OK"
                    }
                }
            }
        },
        "/site/{objectId}/$link/one/application/{linkId}": {
            "get": {
                "tags": [
                    "site"
                ],
                "responses": {
                    "200": {
                        "description": "OK"
                    }
                }
            }
        },
        "/site/{objectId}/$link/one/group": {
            "get": {
                "tags": [
                    "site"
                ],
                "responses": {
                    "200": {
                        "description": "OK"
                    }
                }
            }
        },
        "/site/{objectId}/$link/one/group/{linkId}": {
            "get": {
                "tags": [
                    "site"
                ],
                "responses": {
                    "200": {
                        "description": "OK"
                    }
                }
            }
        },
        "/site/{objectId}/$link/one/outboundMappingPolicy": {
            "get": {
                "tags": [
                    "site"
                ],
                "responses": {
                    "200": {
                        "description": "OK"
                    }
                }
            }
        },
        "/site/{objectId}/$link/one/outboundMappingPolicy/{linkId}": {
            "get": {
                "tags": [
                    "site"
                ],
                "responses": {
                    "200": {
                        "description": "OK"
                    }
                }
            }
        },
        "/site/{objectId}/$link/one/policy": {
            "get": {
                "tags": [
                    "site"
                ],
                "responses": {
                    "200": {
                        "description": "OK"
                    }
                }
            }
        },
        "/site/{objectId}/$link/one/policy/{linkId}": {
            "get": {
                "tags": [
                    "site"
                ],
                "responses": {
                    "200": {
                        "description": "OK"
                    }
                }
            }
        },
        "/site/{objectId}/$link/one/refreshTokenPolicy": {
            "get": {
                "tags": [
                    "site"
                ],
                "responses": {
                    "200": {
                        "description": "OK"
                    }
                }
            }
        },
        "/site/{objectId}/$link/one/refreshTokenPolicy/{linkId}": {
            "get": {
                "tags": [
                    "site"
                ],
                "responses": {
                    "200": {
                        "description": "OK"
                    }
                }
            }
        },
        "/site/{objectId}/$link/one/site": {
            "get": {
                "tags": [
                    "site"
                ],
                "responses": {
                    "200": {
                        "description": "OK"
                    }
                }
            }
        },
        "/site/{objectId}/$link/one/site/{linkId}": {
            "get": {
                "tags": [
                    "site"
                ],
                "responses": {
                    "200": {
                        "description": "OK"
                    }
                }
            }
        },
        "/site/{objectId}/$link/one/user": {
            "get": {
                "tags": [
                    "site"
                ],
                "responses": {
                    "200": {
                        "description": "OK"
                    }
                }
            }
        },
        "/site/{objectId}/$link/one/user/{linkId}": {
            "get": {
                "tags": [
                    "site"
                ],
                "responses": {
                    "200": {
                        "description": "OK"
                    }
                }
            }
        },
        "/site/{objectId}/$link/sub": {
            "get": {
                "tags": [
                    "site"
                ],
                "responses": {
                    "200": {
                        "description": "OK"
                    }
                }
            }
        },
        "/site/{objectId}/$link/sub/application": {
            "get": {
                "tags": [
                    "site"
                ],
                "responses": {
                    "200": {
                        "description": "OK"
                    }
                }
            }
        },
        "/site/{objectId}/$link/sub/application/{linkId}": {
            "get": {
                "tags": [
                    "site"
                ],
                "responses": {
                    "200": {
                        "description": "OK"
                    }
                }
            }
        },
        "/site/{objectId}/$link/sub/group": {
            "get": {
                "tags": [
                    "site"
                ],
                "responses": {
                    "200": {
                        "description": "OK"
                    }
                }
            }
        },
        "/site/{objectId}/$link/sub/group/{linkId}": {
            "get": {
                "tags": [
                    "site"
                ],
                "responses": {
                    "200": {
                        "description": "OK"
                    }
                }
            }
        },
        "/site/{objectId}/$link/sub/outboundMappingPolicy": {
            "get": {
                "tags": [
                    "site"
                ],
                "responses": {
                    "200": {
                        "description": "OK"
                    }
                }
            }
        },
        "/site/{objectId}/$link/sub/outboundMappingPolicy/{linkId}": {
            "get": {
                "tags": [
                    "site"
                ],
                "responses": {
                    "200": {
                        "description": "OK"
                    }
                }
            }
        },
        "/site/{objectId}/$link/sub/policy": {
            "get": {
                "tags": [
                    "site"
                ],
                "responses": {
                    "200": {
                        "description": "OK"
                    }
                }
            }
        },
        "/site/{objectId}/$link/sub/policy/{linkId}": {
            "get": {
                "tags": [
                    "site"
                ],
                "responses": {
                    "200": {
                        "description": "OK"
                    }
                }
            }
        },
        "/site/{objectId}/$link/sub/refreshTokenPolicy": {
            "get": {
                "tags": [
                    "site"
                ],
                "responses": {
                    "200": {
                        "description": "OK"
                    }
                }
            }
        },
        "/site/{objectId}/$link/sub/refreshTokenPolicy/{linkId}": {
            "get": {
                "tags": [
                    "site"
                ],
                "responses": {
                    "200": {
                        "description": "OK"
                    }
                }
            }
        },
        "/site/{objectId}/$link/sub/site": {
            "get": {
                "tags": [
                    "site"
                ],
                "responses": {
                    "200": {
                        "description": "OK"
                    }
                }
            }
        },
        "/site/{objectId}/$link/sub/site/{linkId}": {
            "get": {
                "tags": [
                    "site"
                ],
                "responses": {
                    "200": {
                        "description": "OK"
                    }
                }
            }
        },
        "/site/{objectId}/$link/sub/user": {
            "get": {
                "tags": [
                    "site"
                ],
                "responses": {
                    "200": {
                        "description": "OK"
                    }
                }
            }
        },
        "/site/{objectId}/$link/sub/user/{linkId}": {
            "get": {
                "tags": [
                    "site"
                ],
                "responses": {
                    "200": {
                        "description": "OK"
                    }
                }
            }
        },
        "/user/{objectId}": {
            "get": {
                "tags": [
                    "user"
                ],
                "responses": {
                    "200": {
                        "description": "OK"
                    }
                }
            }
        },
        "/user/{objectId}/$link/method": {
            "get": {
                "tags": [
                    "user"
                ],
                "responses": {
                    "200": {
                        "description": "OK"
                    }
                }
            }
        },
        "/user/{objectId}/$link/method/{linkId}": {
            "get": {
                "tags": [
                    "user"
                ],
                "responses": {
                    "200": {
                        "description": "OK"
                    }
                }
            }
        },
        "/user/{objectId}/$link/outboundMappingPolicy": {
            "get": {
                "tags": [
                    "user"
                ],
                "responses": {
                    "200": {
                        "description": "OK"
                    }
                }
            }
        },
        "/user/{objectId}/$link/outboundMappingPolicy/{linkId}": {
            "get": {
                "tags": [
                    "user"
                ],
                "responses": {
                    "200": {
                        "description": "OK"
                    }
                }
            }
        },
        "/user/{objectId}/$link/outboundUserMapping": {
            "get": {
                "tags": [
                    "user"
                ],
                "responses": {
                    "200": {
                        "description": "OK"
                    }
                }
            }
        },
        "/user/{objectId}/$link/outboundUserMapping/{linkId}": {
            "get": {
                "tags": [
                    "user"
                ],
                "responses": {
                    "200": {
                        "description": "OK"
                    }
                }
            }
        },
        "/user/{objectId}/$link/site": {
            "get": {
                "tags": [
                    "user"
                ],
                "responses": {
                    "200": {
                        "description": "OK"
                    }
                }
            }
        },
        "/user/{objectId}/$link/site/{linkId}": {
            "get": {
                "tags": [
                    "user"
                ],
                "responses": {
                    "200": {
                        "description": "OK"
                    }
                }
            }
        },
        "/user/{objectId}/$link/memberOf": {
            "get": {
                "tags": [
                    "user"
                ],
                "responses": {
                    "200": {
                        "description": "OK"
                    }
                }
            }
        },
        "/user/{objectId}/$link/memberOf/group": {
            "get": {
                "tags": [
                    "user"
                ],
                "responses": {
                    "200": {
                        "description": "OK"
                    }
                }
            }
        },
        "/user/{objectId}/$link/memberOf/group/{linkId}": {
            "get": {
                "tags": [
                    "user"
                ],
                "responses": {
                    "200": {
                        "description": "OK"
                    }
                }
            }
        }
    }
}